{
  "@type": "Management",
  "term": {
    "@id": "forest",
    "@type": "Term",
    "name": "Forest",
    "termType": "landCover"
  },
  "value": 5.9,
  "startDate": "1990-01-01",
  "endDate": "1990-12-31"
}