{
  "@type": "Measurement",
  "term": {
    "@id": "sandSoilTexture",
    "@type": "Term",
    "name": "Sand (soil texture)",
    "termType": "soilTexture"
  },
  "methodClassification": "geospatial dataset"
}
