{
  "@type": "Measurement",
  "term": {
    "@id": "organicCarbonPerKgSoil",
    "@type": "Term",
    "name": "Organic carbon (per kg soil)",
    "units": "g C / kg soil",
    "termType": "measurement"
  },
  "method": {
    "@id": "chromicAcidWetOxidation",
    "@type": "Term",
    "name": "Chromic acid wet oxidation",
    "termType": "methodMeasurement"
  },
  "methodClassification": "on-site physical measurement",
  "dates": [
    "1989-01",
    "1989-01-01",
    "1989-01-01T20:20:39"
  ],
  "value": [
    0.1,
    0.36,
    0.4
  ]
}
