{
  "@context": "https://DOMAIN/schema/Site.jsonld",
  "@id": "hhasd8",
  "@type": "Site",
  "siteType": "cropland",
  "name": "Land use change example",
  "country": {
    "@id": "GADM-BRA",
    "@type": "Term",
    "name": "Brazil",
    "termType": "region"
  },
  "management": [
    {
      "@type": "Management",
      "term": {
        "@id": "forest",
        "@type": "Term",
        "name": "Forest",
        "termType": "landCover"
      },
      "value": 5.9,
      "startDate": "1990-01-01",
      "endDate": "1990-12-31"
    },
    {
      "@type": "Management",
      "term": {
        "@id": "annualCropland",
        "@type": "Term",
        "name": "Annual cropland",
        "termType": "landCover"
      },
      "value": 94.15,
      "startDate": "1990-01-01",
      "endDate": "1990-12-31"
    },
    {
      "@type": "Management",
      "term": {
        "@id": "permanentCropland",
        "@type": "Term",
        "name": "Permanent cropland",
        "termType": "landCover"
      },
      "value": 0,
      "startDate": "1990-01-01",
      "endDate": "1990-12-31"
    },
    {
      "@type": "Management",
      "term": {
        "@id": "permanentPasture",
        "@type": "Term",
        "name": "Permanent pasture",
        "termType": "landCover"
      },
      "value": 0,
      "startDate": "1990-01-01",
      "endDate": "1990-12-31"
    },
    {
      "@type": "Management",
      "term": {
        "@id": "maizePlant",
        "@type": "Term",
        "name": "Maize plant",
        "termType": "landCover"
      },
      "value": 100,
      "startDate": "2010-01-01",
      "endDate": "2010-12-31"
    }
  ],
  "defaultSource": {
    "@id": "adsi899",
    "@type": "Source",
    "name": "Cordoba (2024)"
  },
  "defaultMethodClassification": "verified survey data",
  "defaultMethodClassificationDescription": "Data from site visits and historical maps",
  "dataPrivate": false
}