{
  "@context": "https://DOMAIN/schema/Term.jsonld",
  "@id": "wheatGrain",
  "@type": "Term",
  "termType": "crop",
  "name": "Wheat, grain",
  "units": "kg",
  "definition": "The grain, including outer husk.",
  "scientificName": "Triticum aestivum",
  "iccCode": 11,
  "hsCode": "1214.90",
  "feedipedia": {
    "@id": "https://www.feedipedia.org/node/12754"
  },
  "wikipedia": {
    "@id": "https://en.wikipedia.org/wiki/Wheat"
  },
  "subClassOf": [
    {
      "@id": "wheatPlants",
      "@type": "Term",
      "name": "Wheat plants",
      "termType": "crop"
    }
  ],
  "defaultProperties": [
    {
      "@type": "Property",
      "term": {
        "@id": "dryMatter",
        "@type": "Term",
        "name": "Dry matter",
        "termType": "property"
      },
      "value": 87
    }
  ]
}
